<?xml version="1.0" encoding="UTF-8" standalone="no"?>
<!-- Created with Inkscape (http://www.inkscape.org/) -->

<svg
   width="21.781mm"
   height="20mm"
   viewBox="0 0 21.781 20"
   version="1.1"
   id="svg5"
   sodipodi:docname="sound2.svg"
   inkscape:version="1.1.2 (0a00cf5339, 2022-02-04)"
   xmlns:inkscape="http://www.inkscape.org/namespaces/inkscape"
   xmlns:sodipodi="http://sodipodi.sourceforge.net/DTD/sodipodi-0.dtd"
   xmlns="http://www.w3.org/2000/svg"
   xmlns:svg="http://www.w3.org/2000/svg">
  <sodipodi:namedview
     id="namedview7"
     pagecolor="#ffffff"
     bordercolor="#666666"
     borderopacity="1.0"
     inkscape:pageshadow="2"
     inkscape:pageopacity="0.0"
     inkscape:pagecheckerboard="0"
     inkscape:document-units="mm"
     showgrid="false"
     inkscape:zoom="3.1072952"
     inkscape:cx="6.1146427"
     inkscape:cy="16.091165"
     inkscape:window-width="1920"
     inkscape:window-height="1031"
     inkscape:window-x="0"
     inkscape:window-y="25"
     inkscape:window-maximized="1"
     inkscape:current-layer="layer1" />
  <defs
     id="defs2" />
  <g
     inkscape:label="Calque 1"
     inkscape:groupmode="layer"
     id="layer1">
    <g
       id="g1583"
       transform="matrix(1.0957122,0,0,1.0957122,3.114746e-6,-0.95712382)">
      <path
         style="fill:none;stroke:#000000;stroke-width:1.098;stroke-linecap:round;stroke-miterlimit:4;stroke-dasharray:none;stroke-opacity:1"
         id="path43197-2"
         sodipodi:type="arc"
         sodipodi:cx="-8.3551712"
         sodipodi:cy="-9.7734814"
         sodipodi:rx="5.8656425"
         sodipodi:ry="5.8656416"
         sodipodi:start="2.4084734"
         sodipodi:end="3.9842696"
         sodipodi:arc-type="arc"
         sodipodi:open="true"
         transform="scale(-1)"
         d="m -12.713875,-5.8482481 a 5.8656425,5.8656416 0 0 1 -1.49814,-4.2463859 5.8656425,5.8656416 0 0 1 1.953452,-4.057122" />
      <path
         style="fill:none;stroke:#000000;stroke-width:1.098;stroke-linecap:round;stroke-miterlimit:4;stroke-dasharray:none;stroke-opacity:1"
         id="path43197-2-7"
         sodipodi:type="arc"
         sodipodi:cx="-1.3770468"
         sodipodi:cy="-9.532012"
         sodipodi:rx="17.952585"
         sodipodi:ry="12.11836"
         sodipodi:start="2.4084734"
         sodipodi:end="3.9842696"
         sodipodi:arc-type="arc"
         sodipodi:open="true"
         transform="scale(-1)"
         d="m -14.717445,-1.4225176 a 17.952585,12.11836 0 0 1 -4.585258,-8.7729924 17.952585,12.11836 0 0 1 5.978802,-8.381975" />
      <g
         id="g45005"
         style="fill:#000000"
         transform="matrix(1.2213411,0,0,1.2213411,-138.16314,-176.25962)">
        <path
           style="fill:#000000;stroke:none;stroke-width:0.264583px;stroke-linecap:butt;stroke-linejoin:miter;stroke-opacity:1"
           d="m 121.13389,147.8488 v 9.31075 l -8.00977,-4.66041 z"
           id="path44063-3" />
        <rect
           style="fill:#000000;stroke:none;stroke-width:1.6;stroke-linecap:round;stroke-miterlimit:4;stroke-dasharray:none;stroke-opacity:1"
           id="rect44467"
           width="5.7327704"
           height="5.5573187"
           x="113.12413"
           y="149.8042" />
      </g>
    </g>
  </g>
</svg>
